Customer Segmenation for a Digital TV Company
…
# Calculate the mean of Monthly_Electronic_Spend for each Location
mean_by_location <- data %>%
  group_by(Location) %>%
  summarise(Location_mean = mean(MonthlyElectronicsSpend, na.rm = TRUE))

# Replace Location with the mean target values
data <- data %>%
  left_join(mean_by_location, by = "Location") %>%
  dplyr::select(-Location) %>%
  rename(Location_mean_encoding = Location_mean)

# Print the transformed data
print(data)

## # A tibble: 1,000 × 22
##       ID Gender CodedGender MaritalStatus WorkStatus   Education Edcoded AnnualIncomex1000   Age PurchasingDecisionMaker
##    <dbl> <chr>        <dbl> <chr>         <chr>        <chr>       <dbl>             <dbl> <dbl> <chr>                  
##  1     1 male             1 married       professional none            0                49    30 family                 
##  2     2 male             1 single        none         none            0                46    36 single                 
##  3     3 male             1 married       professional BA              1                58    66 family                 
##  4     4 male             1 married       none         PhD             3                51    78 family                 
##  5     5 female           0 single        none         none            0                46    52 single                 
##  6     6 female           0 married       none         BA              1                31    72 single                 
##  7     7 male             1 married       professional none            0                33    62 single                 
##  8     8 male             1 married       none         none            0                29    30 single                 
##  9     9 male             1 married       professional none            0                57    60 family                 
## 10    10 female           0 married       professional none            0                30    59 family                 
## # ℹ 990 more rows
## # ℹ 12 more variables: PurchasingLocation <chr>, PLcoded <dbl>, MonthlyElectronicsSpend <dbl>, Annualspendingonelectronics <dbl>,
## #   Spendingasofincome <dbl>, MonthlyHouseholdSpend <dbl>, PurchasingFrequencyeveryxmonths <dbl>, TechnologyAdoption <chr>,
## #   TVViewinghoursday <dbl>, Favoritefeature <chr>, FFcoded <dbl>, Location_mean_encoding <dbl>
…
